<svg width="100" height="100" viewBox="0 0 100 100" fill="none" xmlns="http://www.w3.org/2000/svg">
<path fill-rule="evenodd" clip-rule="evenodd" d="M19.046 7.87443C23.5831 0.588626 33.113 -1.61459 40.3152 3.07937C43.4596 5.12869 47.2654 9.25841 49.9997 13.5452C52.734 9.25841 56.5398 5.12869 59.6842 3.07937C66.8864 -1.61459 76.4163 0.588626 80.9534 7.87443C85.4576 15.1074 83.41 24.7334 76.2636 29.3909C75.7566 29.7214 75.1942 30.0451 74.5867 30.3586H99C99.5523 30.3586 100 30.8063 100 31.3586V47.4941C100 48.0464 99.5523 48.4941 99 48.4941H95.4545V51.7792H50.9V30.3586H49.1V51.7792H4.54545V48.4941H1C0.447715 48.4941 0 48.0464 0 47.4941V31.3586C0 30.8063 0.447714 30.3586 0.999999 30.3586H25.4127C24.8052 30.0451 24.2428 29.7214 23.7357 29.3909C16.5894 24.7334 14.5418 15.1074 19.046 7.87443ZM4.54545 53.5792V98.1104C4.54545 99.215 5.44088 100.11 6.54545 100.11H49.1V53.5792H4.54545ZM50.9 100.11H93.4545C94.5591 100.11 95.4545 99.215 95.4545 98.1104V53.5792H50.9V100.11ZM46.0005 24.6511L46.0004 24.6871C45.9974 25.1438 45.8994 25.3347 45.8812 25.364C45.8645 25.3909 45.5684 25.8189 44.1613 26.1015C42.8053 26.3739 40.959 26.3872 38.8236 26.1154C34.4778 25.5623 30.1061 23.9937 28.1038 22.6887C24.664 20.4468 23.597 15.7003 25.8369 12.1033C28.044 8.55919 32.5631 7.5761 35.9471 9.78158C37.9537 11.0894 41.2035 14.4913 43.543 18.3079C44.6919 20.1821 45.4738 21.923 45.8141 23.3304C45.954 23.9089 45.9991 24.3391 46.0005 24.6511ZM53.999 24.6869C54.002 25.1437 54.1 25.3347 54.1182 25.364C54.1349 25.3909 54.431 25.8189 55.8381 26.1015C57.1941 26.3739 59.0403 26.3872 61.1758 26.1154C65.5216 25.5623 69.8933 23.9937 71.8956 22.6887C75.3354 20.4468 76.4024 15.7003 74.1625 12.1033C71.9554 8.55919 67.4363 7.5761 64.0523 9.78158C62.0457 11.0894 58.7958 14.4913 56.4563 18.3079C55.3075 20.1821 54.5255 21.923 54.1853 23.3304C54.0454 23.909 54.0002 24.3392 53.9989 24.6513L53.999 24.6869Z" fill="#828DF2"/>
</svg>
