<svg width="100" height="100" viewBox="0 0 100 100" fill="none" xmlns="http://www.w3.org/2000/svg">
<path d="M97.1748 2.82524C93.3527 -0.99663 87.1367 -0.932763 83.3941 2.96704L62.9086 24.3141L12.9162 7.76977L2.42187 18.2643L44.0922 43.9215L23.007 65.893L9.48535 63.6731L0 73.1584L19.8789 80.1211L26.8416 100L36.3269 90.5147L34.107 76.993L56.0785 55.908L81.7357 97.5782L92.2303 87.0836L75.6861 37.0913L97.0328 16.6059C100.933 12.8633 100.997 6.64731 97.1748 2.82524Z" fill="#828DF2"/>
</svg>
