<svg width="24" height="24" viewBox="0 0 24 24" fill="none" xmlns="http://www.w3.org/2000/svg">
<path d="M9.0001 19.9C8.8001 19.9 8.5001 19.8 8.4001 19.6C8.0001 19.2 8.0001 18.7 8.4001 18.3L14.8001 11.9L8.4001 5.60001C8.0001 5.30001 8.0001 4.70001 8.4001 4.40001C8.7001 4.00001 9.3001 4.00001 9.6001 4.40001L16.6001 11.4C17.0001 11.8 17.0001 12.3 16.6001 12.7L9.6001 19.7C9.5001 19.8 9.2001 19.9 9.0001 19.9Z" fill="#042616"/>
</svg>
