<svg width="24" height="24" viewBox="0 0 24 24" fill="none" xmlns="http://www.w3.org/2000/svg">
<path d="M15.5001 18.9C15.1001 18.9 14.8001 18.6 14.6001 18.3L13.8001 15.7C12.6001 16 11.3001 16 10.0001 15.7L9.20006 18.3C9.10006 18.8 8.60006 19.1 8.10006 18.9C7.60006 18.8 7.40006 18.3 7.50006 17.8L8.30006 15.2C7.30006 14.8 6.30006 14.1 5.30006 13.3L3.50006 15.2C3.20006 15.6 2.60006 15.6 2.20006 15.3C2.00006 14.9 2.00006 14.4 2.30006 14L4.10006 12C3.40006 11.3 2.80006 10.4 2.20006 9.49999C2.00006 9.09999 2.10006 8.49999 2.50006 8.19999C2.90006 7.89999 3.50006 8.09999 3.70006 8.49999C4.40006 9.59999 5.10006 10.5 5.90006 11.3C7.10006 12.5 8.30006 13.3 9.70006 13.7C11.2001 14.2 12.7001 14.2 14.1001 13.7C15.4001 13.3 16.7001 12.5 17.9001 11.3C18.7001 10.5 19.5001 9.59999 20.1001 8.49999C20.4001 8.09999 20.9001 7.99999 21.3001 8.19999C21.7001 8.39999 21.8001 8.99999 21.6001 9.39999C21.0001 10.3 20.4001 11.2 19.7001 11.9L21.5001 13.9C21.8001 14.3 21.8001 14.8 21.4001 15.2C21.0001 15.5 20.5001 15.5 20.1001 15.1L18.3001 13.2C17.4001 14 16.4001 14.6 15.3001 15.1L16.1001 17.7C16.2001 18.2 16.0001 18.7 15.5001 18.8C15.7001 18.9 15.6001 18.9 15.5001 18.9Z" fill="#042616"/>
</svg>
