<svg width="24" height="24" viewBox="0 0 24 24" fill="none" xmlns="http://www.w3.org/2000/svg">
<path d="M12.0001 21L11.6001 20.8C1.80009 15.5 0.900086 10.4 1.10009 7.80001C1.40009 5.20001 3.20009 3.10001 5.70009 2.40001C7.90009 1.80001 10.3001 2.40001 12.0001 4.00001C13.7001 2.40001 16.0001 1.80001 18.3001 2.40001C20.8001 3.10001 22.6001 5.30001 22.9001 7.80001C23.2001 10.4 22.2001 15.5 12.5001 20.8L12.0001 21ZM7.50009 3.90001C7.10009 3.90001 6.70009 4.00001 6.20009 4.10001C4.40009 4.60001 3.10009 6.10001 2.90009 8.00001C2.70009 9.70001 3.30009 14.1 12.0001 19C20.7001 14.1 21.3001 9.70001 21.1001 8.00001C20.9001 6.20001 19.6001 4.60001 17.8001 4.10001C15.9001 3.60001 14.0001 4.20001 12.7001 5.80001L12.0001 6.70001L11.3001 5.80001C10.3001 4.60001 8.90009 3.90001 7.50009 3.90001Z" fill="#042616"/>
</svg>
