<svg width="24" height="24" viewBox="0 0 24 24" fill="none" xmlns="http://www.w3.org/2000/svg">
<g clip-path="url(#clip0_129_3533)">
<path d="M12 0C5.24006 0 0 4.95169 0 11.64C0 15.1385 1.43372 18.1614 3.76875 20.2495C3.96469 20.4249 4.083 20.6707 4.09106 20.9337L4.15641 23.0684C4.17731 23.7492 4.88053 24.1923 5.50359 23.9172L7.88541 22.8656C8.08728 22.7766 8.31368 22.76 8.52637 22.8187C9.62091 23.1196 10.7858 23.2799 12 23.2799C18.7599 23.2799 24 18.3282 24 11.6399C24 4.95159 18.7599 0 12 0Z" fill="url(#paint0_radial_129_3533)"/>
<path d="M4.79384 15.0441L8.31884 9.45159C8.87947 8.5619 10.0802 8.34037 10.9215 8.97131L13.7251 11.0741C13.8503 11.168 14.0027 11.2186 14.1592 11.2181C14.3157 11.2177 14.4678 11.1662 14.5925 11.0716L18.3789 8.19796C18.8842 7.81443 19.544 8.41921 19.2057 8.95593L15.6807 14.5485C15.12 15.4381 13.9192 15.6596 13.078 15.0287L10.2743 12.9259C10.1491 12.832 9.99673 12.7815 9.84026 12.7819C9.68379 12.7824 9.53173 12.8338 9.40709 12.9284L5.62053 15.802C5.11522 16.1855 4.4555 15.5808 4.79384 15.0441Z" fill="white"/>
</g>
<defs>
<radialGradient id="paint0_radial_129_3533" cx="0" cy="0" r="1" gradientUnits="userSpaceOnUse" gradientTransform="translate(4.61928 23.8716) scale(26.1504 26.1504)">
<stop stop-color="#0099FF"/>
<stop offset="0.60975" stop-color="#A033FF"/>
<stop offset="0.93482" stop-color="#FF5280"/>
<stop offset="1" stop-color="#FF7061"/>
</radialGradient>
<clipPath id="clip0_129_3533">
<rect width="24" height="24" fill="white"/>
</clipPath>
</defs>
</svg>
